[
  {
    "from": {
      "name": "Grpc.Core.Api",
      "version": "2.44.0"
    },
    "to": {
      "name": "System.Memory",
      "version": "4.5.3"
    },
    "range": "4.5.3"
  },
  {
    "to": {
      "name": "dep1",
      "version": ""
    },
    "range": ""
  },
  {
    "from": {
      "name": "dep1",
      "version": ""
    },
    "to": {
      "name": "Grpc.Core",
      "version": "2.44.0"
    },
    "range": "2.44.0"
  },
  {
    "from": {
      "name": "dep1",
      "version": ""
    },
    "to": {
      "name": "dep2",
      "version": ""
    },
    "range": "1.0.0"
  },
  {
    "to": {
      "name": "dep2",
      "version": ""
    },
    "range": ""
  },
  {
    "from": {
      "name": "dep2",
      "version": ""
    },
    "to": {
      "name": "Microsoft.Extensions.DependencyInjection.Abstractions",
      "version": "5.0.0"
    },
    "range": "5.0.0"
  },
  {
    "to": {
      "name": "Serilog",
      "version": "2.10.0"
    },
    "range": "[2.10.0, )"
  },
  {
    "from": {
      "name": "Grpc.Core",
      "version": "2.44.0"
    },
    "to": {
      "name": "Grpc.Core.Api",
      "version": "2.44.0"
    },
    "range": "2.44.0"
  },
  {
    "from": {
      "name": "Grpc.Core",
      "version": "2.44.0"
    },
    "to": {
      "name": "System.Memory",
      "version": "4.5.3"
    },
    "range": "4.5.3"
  }
]
